%YAML 1.1
%TAG !u! tag:unity3d.com,2011:
--- !u!78 &1
TagManager:
  serializedVersion: 2
  tags: []
  layers:
  - Default
  - TransparentFX
  - Ignore Raycast
  - 
  - Water
  - UI
  - ShieldDeactivator
  - Player
  - Enemy
  - Obstacle
  - ParticleCollector
  - WarTail
  - Bonus
  - 
  - 
  - 
  - 
  - 
  - 
  - 
  - 
  - 
  - 
  - 
  - 
  - 
  - 
  - 
  - 
  - 
  - 
  - 
  m_SortingLayers:
  - name: Background
    uniqueID: 3506611491
    locked: 0
  - name: Default
    uniqueID: 0
    locked: 0
  - name: Entities
    uniqueID: 795983701
    locked: 0
  - name: UI
    uniqueID: 1355385259
    locked: 0
  - name: Player
    uniqueID: 869557487
    locked: 0
